Updatecheck<|||>3<|||>1
DoUsageStatistics<|||>3<|||>1
Theme<|||>1<|||>Windows
SQL Attr Comment Foreground<|||>3<|||>8421504
SQL Attr ConditionalComment Foreground<|||>3<|||>8421504
SQL Attr DataType Foreground<|||>3<|||>128
SQL Attr DelimitedIdentifier Foreground<|||>3<|||>32896
SQL Attr Function Foreground<|||>3<|||>8388608
SQL Attr Identifier Foreground<|||>3<|||>32896
SQL Attr Key Foreground<|||>3<|||>16711680
SQL Attr Number Foreground<|||>3<|||>8388736
SQL Attr String Foreground<|||>3<|||>32768
SQL Attr Symbol Foreground<|||>3<|||>16711680
SQL Attr TableName Foreground<|||>3<|||>16711935
SQL Attr Variable Foreground<|||>3<|||>8388736
FieldColor_Binary<|||>3<|||>8388736
FieldColor_Datetime<|||>3<|||>128
FieldColor_Numeric<|||>3<|||>16711680
FieldColor_Other<|||>3<|||>32896
FieldColor_Real<|||>3<|||>16711752
FieldColor_Spatial<|||>3<|||>8421376
FieldColor_Text<|||>3<|||>32768
UpdatecheckLastrun<|||>1<|||>2020-02-04 12:15:21
LastUsageStatisticCall<|||>1<|||>2020-01-20 11:09:56
ColWidths_connform.ListSessions<|||>1<|||>163,50,50,50,50,50,53
ColsVisible_connform.ListSessions<|||>1<|||>0
ColPositions_connform.ListSessions<|||>1<|||>0,1,2,3,4,5,6
ColSort_connform.ListSessions<|||>1<|||>0,0
MainWinOnMonitor<|||>3<|||>0
ColWidths_MainForm.ListDatabases<|||>1<|||>150,80,50,50,50,50,50,50,50,50,120
ColsVisible_MainForm.ListDatabases<|||>1<|||>0,1,2,3,4,5,6,7,8,9,10
ColPositions_MainForm.ListDatabases<|||>1<|||>0,1,2,3,4,5,6,7,8,9,10
ColSort_MainForm.ListDatabases<|||>1<|||>0,0
ColWidths_MainForm.ListVariables<|||>1<|||>160,200,428
ColsVisible_MainForm.ListVariables<|||>1<|||>0,1,2
ColPositions_MainForm.ListVariables<|||>1<|||>0,1,2
ColSort_MainForm.ListVariables<|||>1<|||>0,0
ColWidths_MainForm.ListStatus<|||>1<|||>160,428,100,100
ColsVisible_MainForm.ListStatus<|||>1<|||>0,1,2,3
ColPositions_MainForm.ListStatus<|||>1<|||>0,1,2,3
ColSort_MainForm.ListStatus<|||>1<|||>0,0
ColWidths_MainForm.ListProcesses<|||>1<|||>70,80,80,80,80,50,50,298
ColsVisible_MainForm.ListProcesses<|||>1<|||>0,1,2,3,4,5,6,7
ColPositions_MainForm.ListProcesses<|||>1<|||>0,1,2,3,4,5,6,7
ColSort_MainForm.ListProcesses<|||>1<|||>0,1
ColWidths_MainForm.ListCommandStats<|||>1<|||>120,100,100,100,368
ColsVisible_MainForm.ListCommandStats<|||>1<|||>0,1,2,3,4
ColPositions_MainForm.ListCommandStats<|||>1<|||>0,1,2,3,4
ColSort_MainForm.ListCommandStats<|||>1<|||>1,1
ColWidths_MainForm.ListTables<|||>1<|||>120,70,70,120,120,70,100,50,70,70,70,70,70,90,120,70,70,70,50
ColsVisible_MainForm.ListTables<|||>1<|||>0,1,2,3,4,5,6,18
ColPositions_MainForm.ListTables<|||>1<|||>0,1,2,3,4,5,6,7,8,9,10,11,12,13,14,15,16,17,18
ColSort_MainForm.ListTables<|||>1<|||>0,0
LastSessions<|||>1<|||>Local PC
LastActiveSession<|||>1<|||>Local PC
querymemoheight<|||>3<|||>391
MainWinMaximized<|||>3<|||>1
MainWinLeft<|||>3<|||>82
MainWinTop<|||>3<|||>68
FontSize<|||>3<|||>11
SQL Attr Comment Background<|||>3<|||>536870911
SQL Attr Comment Style<|||>3<|||>2
SQL Attr ConditionalComment Background<|||>3<|||>536870911
SQL Attr ConditionalComment Style<|||>3<|||>2
SQL Attr ConsoleOutput Foreground<|||>3<|||>536870911
SQL Attr ConsoleOutput Background<|||>3<|||>536870911
SQL Attr ConsoleOutput Style<|||>3<|||>5
SQL Attr DataType Background<|||>3<|||>536870911
SQL Attr DataType Style<|||>3<|||>1
SQL Attr DefaultPackages Foreground<|||>3<|||>536870911
SQL Attr DefaultPackages Background<|||>3<|||>536870911
SQL Attr DefaultPackages Style<|||>3<|||>1
SQL Attr DelimitedIdentifier Background<|||>3<|||>536870911
SQL Attr DelimitedIdentifier Style<|||>3<|||>0
SQL Attr Exception Foreground<|||>3<|||>536870911
SQL Attr Exception Background<|||>3<|||>536870911
SQL Attr Exception Style<|||>3<|||>2
SQL Attr Function Background<|||>3<|||>536870911
SQL Attr Function Style<|||>3<|||>1
SQL Attr Identifier Background<|||>3<|||>536870911
SQL Attr Identifier Style<|||>3<|||>0
SQL Attr Key Background<|||>3<|||>536870911
SQL Attr Key Style<|||>3<|||>1
SQL Attr Number Background<|||>3<|||>536870911
SQL Attr Number Style<|||>3<|||>0
SQL Attr PLSQL-ReservedWord Foreground<|||>3<|||>536870911
SQL Attr PLSQL-ReservedWord Background<|||>3<|||>536870911
SQL Attr PLSQL-ReservedWord Style<|||>3<|||>1
SQL Attr ProcName Foreground<|||>3<|||>536870911
SQL Attr ProcName Background<|||>3<|||>536870911
SQL Attr ProcName Style<|||>3<|||>0
SQL Attr Space Foreground<|||>3<|||>536870911
SQL Attr Space Background<|||>3<|||>536870911
SQL Attr Space Style<|||>3<|||>0
SQL Attr SQLPlus-Command Foreground<|||>3<|||>536870911
SQL Attr SQLPlus-Command Background<|||>3<|||>536870911
SQL Attr SQLPlus-Command Style<|||>3<|||>1
SQL Attr String Background<|||>3<|||>536870911
SQL Attr String Style<|||>3<|||>0
SQL Attr Symbol Background<|||>3<|||>536870911
SQL Attr Symbol Style<|||>3<|||>0
SQL Attr TableName Background<|||>3<|||>536870911
SQL Attr TableName Style<|||>3<|||>0
SQL Attr Variable Background<|||>3<|||>536870911
SQL Attr Variable Style<|||>3<|||>0
FieldEditor_Set<|||>3<|||>1
CreateDbCollation<|||>1<|||>utf8mb4_unicode_ci
ColWidths_frmTableEditor.listColumns<|||>1<|||>22,100,154,90,64,85,50,117,130,140,100,100
ColsVisible_frmTableEditor.listColumns<|||>1<|||>0,1,2,3,4,5,6,7,8,9,10,11
ColPositions_frmTableEditor.listColumns<|||>1<|||>0,1,2,3,4,5,6,7,8,9,10,11
ColSort_frmTableEditor.listColumns<|||>1<|||>-1,0
ColWidths_frmTableEditor.treeIndexes<|||>1<|||>1362,100,80
ColsVisible_frmTableEditor.treeIndexes<|||>1<|||>0,1,2
ColPositions_frmTableEditor.treeIndexes<|||>1<|||>0,1,2
ColSort_frmTableEditor.treeIndexes<|||>1<|||>-1,0
ColWidths_frmTableEditor.listForeignKeys<|||>1<|||>132,148,100,80,80,80
ColsVisible_frmTableEditor.listForeignKeys<|||>1<|||>0,1,2,3,4,5
ColPositions_frmTableEditor.listForeignKeys<|||>1<|||>0,1,2,3,4,5
ColSort_frmTableEditor.listForeignKeys<|||>1<|||>-1,0
dbtreewidth<|||>3<|||>272
sqloutheight<|||>3<|||>235
ExportSQL_CreateDatabases<|||>3<|||>1
ExportSQL_CreateTables<|||>3<|||>1
ExportSQL_Filenames<|||>1<|||>C:\Dev\fabric-tracker\Resources\fabrics-data.sql<{{{><}}}>C:\Dev\java-demos\Resources\kompaniid-database.sql<{{{><}}}>
ColWidths_UserManagerForm.listUsers<|||>1<|||>96,80
ColsVisible_UserManagerForm.listUsers<|||>1<|||>0,1
ColPositions_UserManagerForm.listUsers<|||>1<|||>0,1
ColSort_UserManagerForm.listUsers<|||>1<|||>0,0
MemoEditorWidth<|||>3<|||>393
MemoEditorHeight<|||>3<|||>132
DateTimeEditor_CursorPos_Type4<|||>3<|||>3
SQLFile0<|||>1<|||>C:\Dev\java-demos\Resources\uue db tekitamine.sql
SQLFile1<|||>1<|||>C:\Users\opilane\Downloads\classicmodels.sql
SQLFile2<|||>1<|||>C:\Dev\java-demos\Resources\minu sql päringud 2ül.sql
SQLFile3<|||>1<|||>C:\Users\opilane\AppData\Roaming\HeidiSQL\Backups\query-tab-2020-01-20_11-33-58-268.sql
SQLFile4<|||>1<|||>C:\Users\opilane\AppData\Roaming\HeidiSQL\Backups\query-tab-2020-01-20_11-23-36-354.sql
Servers\Local PC\SessionCreated<|||>1<|||>2020-01-20 11:12:08
Servers\Local PC\Host<|||>1<|||>127.0.0.1
Servers\Local PC\WindowsAuth<|||>3<|||>0
Servers\Local PC\CleartextPluginEnabled<|||>3<|||>0
Servers\Local PC\User<|||>1<|||>root
Servers\Local PC\Password<|||>1<|||>1
Servers\Local PC\LoginPrompt<|||>3<|||>0
Servers\Local PC\Port<|||>1<|||>3306
Servers\Local PC\NetType<|||>3<|||>0
Servers\Local PC\Compressed<|||>3<|||>0
Servers\Local PC\LocalTimeZone<|||>3<|||>0
Servers\Local PC\QueryTimeout<|||>3<|||>30
Servers\Local PC\KeepAlive<|||>3<|||>20
Servers\Local PC\FullTableStatus<|||>3<|||>1
Servers\Local PC\Databases<|||>1<|||>
Servers\Local PC\Library<|||>1<|||>libmariadb.dll
Servers\Local PC\Comment<|||>1<|||>
Servers\Local PC\StartupScriptFilename<|||>1<|||>
Servers\Local PC\TreeBackground<|||>3<|||>536870911
Servers\Local PC\SSHtunnelHost<|||>1<|||>
Servers\Local PC\SSHtunnelHostPort<|||>3<|||>22
Servers\Local PC\SSHtunnelUser<|||>1<|||>
Servers\Local PC\SSHtunnelPassword<|||>1<|||>3
Servers\Local PC\SSHtunnelTimeout<|||>3<|||>4
Servers\Local PC\SSHtunnelPrivateKey<|||>1<|||>
Servers\Local PC\SSHtunnelPort<|||>3<|||>3307
Servers\Local PC\SSL_Active<|||>3<|||>0
Servers\Local PC\SSL_Key<|||>1<|||>
Servers\Local PC\SSL_Cert<|||>1<|||>
Servers\Local PC\SSL_CA<|||>1<|||>
Servers\Local PC\SSL_Cipher<|||>1<|||>
Servers\Local PC\ServerVersionFull<|||>1<|||>10.4.11-MariaDB - mariadb.org binary distribution
Servers\Local PC\ConnectCount<|||>3<|||>8
Servers\Local PC\ServerVersion<|||>3<|||>100411
Servers\Local PC\LastConnect<|||>1<|||>2020-02-04 13:12:51
Servers\Local PC\lastUsedDB<|||>1<|||>kompaniid
Servers\Local PC\RefusedCount<|||>3<|||>4
Servers\Local PC\classicmodels|customers\Sort<|||>1<|||>0_salesRepEmployeeNumber|0_customerName|
Servers\Local PC\fabrics|fabric\Sort<|||>1<|||>0_length|0_fabricType|
Servers\Local PC\fabrics|relation\Sort<|||>1<|||>0_id|
Servers\Local PC\farbrics|fabric\Sort<|||>1<|||>0_composition|
Servers\Local PC\kompaniid|company\Sort<|||>1<|||>0_name|
Servers\Local PC\kompaniid|country\Sort<|||>1<|||>0_name|
Servers\Local PC\QueryHistory\1<|||>1<|||>2020-01-20 11:38:59|classicmodels|16|SELECT COUNT(*) FROM employees;
Servers\Local PC\QueryHistory\3<|||>1<|||>2020-01-20 11:40:36|classicmodels|0|SELECT COUNT(*) as emp_count from employees
Servers\Local PC\QueryHistory\5<|||>1<|||>2020-01-20 11:41:19|classicmodels|0|SELECT * FROM employees;
Servers\Local PC\QueryHistory\2<|||>1<|||>2020-01-20 11:48:14|classicmodels|16|SELECT * FROM employees;<{{{><}}}><{{{><}}}>SELECT COUNT(*) as emp_count from employees;<{{{><}}}><{{{><}}}>SELECT COUNT(*) as sales_rep_count from employees WHERE jobTitle = 'sales Rep';
Servers\Local PC\QueryHistory\6<|||>1<|||>2020-01-20 11:48:47|classicmodels|0|SELECT COUNT(*) as sales_rep_count from employees WHERE jobTitle = 'sales Rep'
Servers\Local PC\QueryHistory\7<|||>1<|||>2020-01-20 11:50:46|classicmodels|0|-- Ex 3<{{{><}}}><{{{><}}}>SELECT * from employees WHERE jobTitle = 'President'
Servers\Local PC\QueryHistory\4<|||>1<|||>2020-01-20 11:51:57|classicmodels|16|SELECT * FROM employees WHERE reportsTo IS NULL
Servers\Local PC\QueryHistory\9<|||>1<|||>2020-01-20 12:03:55|classicmodels|0|-- option 2 inner join. Seome 2 tabelit.<{{{><}}}>SELECT e.firstname, e.lastname<{{{><}}}>FROM employees e<{{{><}}}>INNER JOIN offices o ON o.officeCode = e.officeCode<{{{><}}}>WHERE o.country = 'Japan'
Servers\Local PC\QueryHistory\10<|||>1<|||>2020-01-20 12:10:55|classicmodels|0|-- ex 5<{{{><}}}>SELECT e.firstname, o.phone FROM employees e<{{{><}}}>INNER JOIN offices o ON o.officeCode = e.officeCode<{{{><}}}>WHERE o.officeCode = e.officeCode
Servers\Local PC\QueryHistory\11<|||>1<|||>2020-01-20 12:56:28|classicmodels|0|-- ex 6<{{{><}}}>SELECT e.email FROM employees e INNER JOIN offices o ON o.officeCode = e.officeCode<{{{><}}}>WHERE o.country = 'UK'
Servers\Local PC\QueryHistory\12<|||>1<|||>2020-01-20 13:05:12|classicmodels|0|-- ex 7<{{{><}}}>SELECT c.customerName, e.lastName FROM customers c INNER JOIN employees e ON c.salesRepEmployeeNumber = e.employeeNumber<{{{><}}}>WHERE c.salesRepEmployeeNumber = e.employeeNumber
Servers\Local PC\QueryHistory\13<|||>1<|||>2020-01-20 13:05:24|classicmodels|0|-- ex 7<{{{><}}}>SELECT c.customerName, e.lastName, e.firstName FROM customers c INNER JOIN employees e ON c.salesRepEmployeeNumber = e.employeeNumber<{{{><}}}>WHERE c.salesRepEmployeeNumber = e.employeeNumber
Servers\Local PC\QueryHistory\8<|||>1<|||>2020-01-20 13:12:50|classicmodels|0|SELECT * FROM employees
Servers\Local PC\QueryHistory\14<|||>1<|||>2020-01-20 13:14:15|classicmodels|0|-- ex 8<{{{><}}}>SELECT * FROM customers WHERE country = 'USA'
Servers\Local PC\QueryHistory\17<|||>1<|||>2020-01-20 13:17:25|classicmodels|16|-- variant 1 subquery<{{{><}}}>select email from employees WHERE officeCode IN (<{{{><}}}>SELECT o.officecode from offices o WHERE o.country = 'UK'<{{{><}}}>)
Servers\Local PC\QueryHistory\18<|||>1<|||>2020-01-20 13:17:36|classicmodels|0|-- ex 8<{{{><}}}>SELECT COUNT(*) FROM customers WHERE country = 'USA'
Servers\Local PC\QueryHistory\16<|||>1<|||>2020-01-20 13:21:05|classicmodels|16|-- ex 7<{{{><}}}>SELECT <{{{><}}}>	c.customerName AS customer_name, <{{{><}}}>	CONCAT(e.lastName, e.firstName) AS sales_rep FROM customers c INNER JOIN employees e ON c.salesRepEmployeeNumber = e.employeeNumber<{{{><}}}>WHERE c.salesRepEmployeeNumber = e.employeeNumber
Servers\Local PC\QueryHistory\19<|||>1<|||>2020-01-20 13:21:25|classicmodels|0|-- ex 7<{{{><}}}>SELECT <{{{><}}}>	c.customerName AS customer_name, <{{{><}}}>	CONCAT(e.lastName, ' ',e.firstName) AS sales_rep FROM customers c INNER JOIN employees e ON c.salesRepEmployeeNumber = e.employeeNumber<{{{><}}}>WHERE c.salesRepEmployeeNumber = e.employeeNumber
Servers\Local PC\QueryHistory\15<|||>1<|||>2020-01-20 13:25:09|classicmodels|0|-- 9<{{{><}}}>SELECT * FROM products
Servers\Local PC\QueryHistory\21<|||>1<|||>2020-01-20 13:25:24|classicmodels|0|-- 9<{{{><}}}>SELECT COUNT(*) FROM products
Servers\Local PC\QueryHistory\22<|||>1<|||>2020-01-20 13:27:03|classicmodels|0|-- 1 on veerg<{{{><}}}><{{{><}}}><{{{><}}}>-- 9<{{{><}}}>SELECT COUNT(1) FROM products
Servers\Local PC\QueryHistory\20<|||>1<|||>2020-01-20 13:30:22|classicmodels|0|-- ex 10<{{{><}}}>SELECT productName FROM products WHERE productLine = 'Planes'
Servers\Local PC\QueryHistory\23<|||>1<|||>2020-01-20 13:32:21|classicmodels|16|-- ex 11<{{{><}}}>SELECT productName, quantityInStock FROM products WHERE quantityInStock > 9300
Servers\Local PC\QueryHistory\25<|||>1<|||>2020-01-20 13:36:16|classicmodels|0|-- ASC oleks kasvav järjekord<{{{><}}}>
Servers\Local PC\QueryHistory\26<|||>1<|||>2020-01-20 13:36:25|classicmodels|0|-- ex 12 <{{{><}}}>SELECT orderNumber, orderDate FROM orders ORDER BY orderDate DESC
Servers\Local PC\QueryHistory\24<|||>1<|||>2020-01-20 13:40:56|classicmodels|0|-- DESC tähendab kahanev järjekord<{{{><}}}>-- ASC oleks kasvav järjekord<{{{><}}}><{{{><}}}>-- ex 13<{{{><}}}>SELECT productName, buyPrice, productLine FROM products
Servers\Local PC\QueryHistory\28<|||>1<|||>2020-01-20 13:41:27|classicmodels|0|-- DESC tähendab kahanev järjekord<{{{><}}}>-- ASC oleks kasvav järjekord<{{{><}}}><{{{><}}}>-- ex 13<{{{><}}}>SELECT productName, buyPrice, productLine FROM products ORDER BY buyPrice ASC
Servers\Local PC\QueryHistory\29<|||>1<|||>2020-01-20 13:42:52|classicmodels|0|-- DESC tähendab kahanev järjekord<{{{><}}}>-- ASC oleks kasvav järjekord<{{{><}}}><{{{><}}}>-- ex 13<{{{><}}}>SELECT productName, buyPrice, productLine FROM products <{{{><}}}>ORDER BY buyPrice DESC
Servers\Local PC\QueryHistory\30<|||>1<|||>2020-01-20 13:43:41|classicmodels|0|-- DESC tähendab kahanev järjekord<{{{><}}}>-- ASC oleks kasvav järjekord<{{{><}}}><{{{><}}}>-- ex 13<{{{><}}}>SELECT productName, buyPrice, productLine FROM products <{{{><}}}>ORDER BY buyPrice DESC<{{{><}}}>LIMIT 1
Servers\Local PC\QueryHistory\31<|||>1<|||>2020-01-20 13:48:13|classicmodels|31|-- ex14<{{{><}}}>SELECT orderNumber, orderDate FROM orders <{{{><}}}>WHERE orderDate BETWEEN '2004-08-01' AND '2004-09-25'
Servers\Local PC\QueryHistory\32<|||>1<|||>2020-01-20 14:01:37|classicmodels|0|-- 16<{{{><}}}><{{{><}}}>SELECT orderNumber, orderDate <{{{><}}}>FROM orders <{{{><}}}>WHERE customerNumber IN (SELECT customerNumber FROM customers WHERE customerName LIKE '%Suominen%')<{{{><}}}>ORDER BY orderDate ASC
Servers\Local PC\QueryHistory\33<|||>1<|||>2020-01-20 14:06:05|classicmodels|0|-- 16<{{{><}}}><{{{><}}}>SELECT <{{{><}}}>	orderNumber, <{{{><}}}>	orderDate,<{{{><}}}>	(<{{{><}}}>		SELECT <{{{><}}}>			SUM(orderdetails.quantityOrdered * orderDetails.priceEach)<{{{><}}}>		FROM orderDetails<{{{><}}}>		WHERE <{{{><}}}>			orderdetails.orderNumber = orders.orderNumber<{{{><}}}>	) orderTotalPrice<{{{><}}}>FROM orders <{{{><}}}>WHERE customerNumber IN (SELECT customerNumber FROM customers WHERE customerName LIKE '%Suominen%')<{{{><}}}>ORDER BY orderDate ASC
Servers\Local PC\QueryHistory\34<|||>1<|||>2020-01-20 14:09:32|classicmodels|0|-- 17<{{{><}}}><{{{><}}}>SELECT <{{{><}}}>	orderNumber, <{{{><}}}>	orderDate,<{{{><}}}>	(<{{{><}}}>		SELECT <{{{><}}}>			SUM(orderdetails.quantityOrdered * orderDetails.priceEach)<{{{><}}}>		FROM orderDetails<{{{><}}}>		WHERE <{{{><}}}>			orderdetails.orderNumber = orders.orderNumber<{{{><}}}>	) orderTotalPrice<{{{><}}}>FROM orders <{{{><}}}>ORDER BY orderDate ASC
Servers\Local PC\QueryHistory\35<|||>1<|||>2020-01-20 14:10:14|classicmodels|0|-- 17<{{{><}}}><{{{><}}}>SELECT <{{{><}}}>	orderNumber, <{{{><}}}>	orderDate,<{{{><}}}>	(<{{{><}}}>		SELECT <{{{><}}}>			SUM(orderdetails.quantityOrdered * orderDetails.priceEach)<{{{><}}}>		FROM orderDetails<{{{><}}}>		WHERE <{{{><}}}>			orderdetails.orderNumber = orders.orderNumber<{{{><}}}>	) orderTotalPrice<{{{><}}}>FROM orders <{{{><}}}>ORDER BY orderTotalPrice ASC
Servers\Local PC\QueryHistory\36<|||>1<|||>2020-01-20 14:10:42|classicmodels|15|-- 17<{{{><}}}><{{{><}}}>SELECT <{{{><}}}>	orderNumber, <{{{><}}}>	orderDate,<{{{><}}}>	(<{{{><}}}>		SELECT <{{{><}}}>			SUM(orderdetails.quantityOrdered * orderDetails.priceEach)<{{{><}}}>		FROM orderDetails<{{{><}}}>		WHERE <{{{><}}}>			orderdetails.orderNumber = orders.orderNumber<{{{><}}}>	) orderTotalPrice<{{{><}}}>FROM orders <{{{><}}}>ORDER BY orderTotalPrice DESC LIMIT 1
Servers\Local PC\QueryHistory\37<|||>1<|||>2020-01-20 14:12:47|classicmodels|0|-- 17<{{{><}}}><{{{><}}}>SELECT <{{{><}}}>	orderNumber, <{{{><}}}>	(<{{{><}}}>		SELECT <{{{><}}}>			SUM(orderdetails.quantityOrdered * orderDetails.priceEach)<{{{><}}}>		FROM orderDetails<{{{><}}}>		WHERE <{{{><}}}>			orderdetails.orderNumber = orders.orderNumber<{{{><}}}>	) orderTotalPrice<{{{><}}}>FROM orders <{{{><}}}>ORDER BY orderTotalPrice DESC LIMIT 1
Servers\Local PC\QueryHistory\38<|||>1<|||>2020-01-20 15:07:30|countries|16|-- Republic<{{{><}}}>-- Kingdom<{{{><}}}>-- federation<{{{><}}}>-- peoplesRepublic<{{{><}}}><{{{><}}}>INSERT INTO country_type (NAME) VALUES ('REPUBLIC')
Servers\Local PC\QueryHistory\39<|||>1<|||>2020-01-20 15:07:58|countries|15|INSERT INTO country_type (NAME) VALUES ('KINGDOM')
Servers\Local PC\QueryHistory\40<|||>1<|||>2020-01-20 15:08:16|countries|31|INSERT INTO country_type (NAME) VALUES ('FEDERATION')
Servers\Local PC\QueryHistory\41<|||>1<|||>2020-01-20 15:08:43|countries|0|SELECT * FROM country_type
Servers\Local PC\QueryHistory\27<|||>1<|||>2020-01-20 15:37:25|countries|0|SELECT * FROM country
Servers\Local PC\QueryHistory\43<|||>1<|||>2020-01-20 15:40:31|countries|32|-- INSERT INTO country_type (NAME, col2, col3) VALUES ('FEDERATION', 'str2', 'str3');<{{{><}}}><{{{><}}}>INSERT INTO country (`name`, `population`, `head_of_state`, `gdp_per_capita`, `contry_type_id`) <{{{><}}}>VALUES('Eesti Vabariik', 1300000, 'Kersti Kaljulaid', 37605, 1)
Servers\Local PC\QueryHistory\44<|||>1<|||>2020-01-20 15:43:38|countries|15|INSERT INTO country (`name`, `population`, `head_of_state`, `gdp_per_capita`, `contry_type_id`) <{{{><}}}>VALUES('Ühendkuningriik', 65000000, 'Elizabeth II', 65000, 2)
Servers\Local PC\QueryHistory\45<|||>1<|||>2020-01-20 15:44:36|countries|31|INSERT INTO country (`name`, `population`, `head_of_state`, `gdp_per_capita`, `contry_type_id`) <{{{><}}}>VALUES('Vene Föderatsioon', 145000000, 'Vladimir Putin', 30000, 3)
Servers\Local PC\QueryHistory\46<|||>1<|||>2020-01-20 15:48:54|countries|16|INSERT INTO country (`name`, `population`, `head_of_state`, `gdp_per_capita`, `contry_type_id`) <{{{><}}}>VALUES('Saksamaa', 85000000, 'Frank-Walter Steinmeier',60000 , 3)
Servers\Local PC\QueryHistory\47<|||>1<|||>2020-01-20 15:48:57|countries|16|INSERT INTO country (`name`, `population`, `head_of_state`, `gdp_per_capita`, `contry_type_id`) <{{{><}}}>VALUES('Norra kuningriik', 7000000, 'Harald V',80000 , 3)
Servers\Local PC\QueryHistory\42<|||>1<|||>2020-01-20 15:53:53|countries|31|UPDATE country SET `name` = 'Eesti Kuningriik', head_of_state = 'Tanel Padar'<{{{><}}}>WHERE `name`='Eesti Vabariik'
Servers\Local PC\QueryHistory\49<|||>1<|||>2020-01-20 15:53:57|countries|0|UPDATE country SET contry_type_id = 3 WHERE `name`='Eesti Vabariik'
Servers\Local PC\QueryHistory\48<|||>1<|||>2020-01-20 15:56:14|countries|0|UPDATE country SET contry_type_id = 2 WHERE `name`='Eesti Vabariik'
Servers\Local PC\QueryHistory\51<|||>1<|||>2020-01-20 15:56:51|countries|31|DELETE FROM country WHERE `name` LIKE 'Eesti%'
Servers\Local PC\QueryHistory\50<|||>1<|||>2020-01-30 11:30:49|kompaniid|0|
Servers\Local PC\QueryHistory\52<|||>1<|||>2020-01-30 11:31:17||47|CREATE USER 'fabrics'@'%' IDENTIFIED BY 'tere';<{{{><}}}>CREATE DATABASE farbrics CHARACTER SET UTF8MB4 COLLATE UTF8MB4_UNICODE_CI;<{{{><}}}><{{{><}}}>GRANT ALL PRIVILEGES ON fabrics.* TO 'fabrics'@'%';
Servers\Local PC\QueryHistory\53<|||>1<|||>2020-01-30 11:41:36|farbrics|0|CREATE DATABASE fabrics CHARACTER SET UTF8MB4 COLLATE UTF8MB4_UNICODE_CI
Servers\Local PC\QueryHistory\54<|||>1<|||>2020-01-30 11:41:50|farbrics|16|GRANT ALL PRIVILEGES ON fabrics.* TO 'fabrics'@'%'
